edstr_extract() : extraction du texte • edstr
…
#> $ngrams
#> $ngrams$`1`
#> # A tibble: 41 × 3
#>    concept        texte        match
#>    <chr>          <chr>        <int>
#>  1 patho_inf_abc  abces           54
#>  2 patho_inf_agn  angine          34
#>  3 patho_inf_orl  otite           32
#>  4 patho_inf_pnm  pneumopathie    22
#>  5 patho_bact_psd pseudomonas     13
#>  6 patho_bact_pnm pneumocoque     12
#>  7 patho_inf_agn  pharyngite      12
#>  8 patho_inf_orl  sinusite        12
#>  9 patho_inf_dhb  erysipele       10
#> 10 ains_ains      ains             7
#> # ℹ 31 more rows
…
#>  6 1      méningite     epidurite               3           1     1
#>  7 1      angine        angine                  2           2     2
#>  8 1      staphylocoque staph                   2           1     1
#>  9 1      kétoprofène   ketoprofene             1           1     1
#> 10 1      kétoprofène   profenid                1           1     1
#> 11 1      orl           otite                   1           1     1
#> 12 1      orl           otites                  1           1     1
#> 13 1      sepsis/choc   sepsis                  1           1     1
#> 14 1      staphylocoque staphylocoques          1           1     1
#> 15 2      AINS          anti inflammatoires     1           1     1
#>
#>
#> $regex
#> $regex$concepts
#> # A tibble: 24 × 3
#>    concept_key   concept_name regex
#>    <chr>         <chr>        <chr>
#>  1 ains_ains     AINS         "^(ains\\b|anti?\\s?i?nfla?m)\\S*$"
#>  2 ains_ibu      ibuprofène   "^(ib[iuo]+pr|n[a-z]+rofe?n|advil|antare?n|sp[a-z…
#>  3 ains_ket      kétoprofène  "^(ke?topr|(b|pr)[a-z]+fe?nid)\\S*$"
#>  4 ains_nap      naproxène    "^(napro?x)\\S*$"
#>  5 ains_fnc      fénac        "^((ac|di)[a-z]+fe?nac|voltar)\\S*$"
#>  6 ains_cxb      coxib        "^(c?e[a-z]+coxib)\\S*$"
#>  7 ains_xcm      xicam        "^((m|p)[a-z]+xicam)\\S*$"
#>  8 patho_inf_abc abcès        "^(abces)\\S*$"
#>  9 patho_inf_emp empyème      "^(e[nm]pye?m)\\S*$"
#> 10 patho_inf_cel cellulite    "^(ce?l+ul+it+e)\\S*$"
#> # ℹ 14 more rows
…
#>    concept       texte
#>    <chr>         <glue>
#>  1 AINS          (?i)\b(ains|anti(<br/>)?\s?(-|')?\s?(<br/>)?inflammato[iîï]r[e…
#>  2 abcès         (?i)\b(abc[eéèêë]s)\b
#>  3 angine        (?i)\b(angine)\b
#>  4 cellulite     (?i)\b(c[eéèêë]llulite)\b
#>  5 ibuprofène    (?i)\b(ibuprof[eéèêë]ne)\b
#>  6 kétoprofène   (?i)\b(k[eéèêë]toprof[eéèêë]ne|prof[eéèêë]nid)\b
#>  7 méningite     (?i)\b([eéèêë]pidurite)\b
#>  8 orl           (?i)\b(sinusite|otite|otit[eéèêë]s)\b
#>  9 sepsis/choc   (?i)\b(s[eéèêë]psis)\b
#> 10 staphylocoque (?i)\b(staph|staphylocoqu[eéèêë]s)\b
#>
#> $regex$match
#> # A tibble: 49 × 3
#>    id_entrepot concept match
#>          <dbl> <chr>   <chr>
#>  1    66863115 AINS    anti inflammatoires
#>  2   101098770 AINS    AINS
#>  3   101098770 AINS    AINS
#>  4    60971166 AINS    AINS
#>  5    60971166 AINS    AINS
#>  6    50615549 AINS    AINS
#>  7   101098770 abcès   abcès
#>  8   101098770 abcès   abcès
#>  9   101098770 abcès   Abcès
#> 10   101098770 abcès   abcès
#> # ℹ 39 more rows
…
